<?xml version="1.0" encoding="utf-8"?>
<!-- Generator: Adobe Illustrator 19.0.0, SVG Export Plug-In . SVG Version: 6.00 Build 0)  -->
<svg version="1.1" id="Layer_1" xmlns="http://www.w3.org/2000/svg" xmlns:xlink="http://www.w3.org/1999/xlink" x="0px" y="0px"
	 viewBox="0 0 110.3 104.4" style="enable-background:new 0 0 110.3 104.4;" xml:space="preserve">
<style type="text/css">
	.st0{fill:#006848;}
</style>
<path class="st0" d="M107.1,44.6L65.7,3.2c-4.2-4.2-11.1-4.2-15.3,0c-4.2,4.2-4.2,11.1,0,15.3l22.8,22.9H10.8
	C4.9,41.4,0,46.2,0,52.2c0,6,4.9,10.8,10.8,10.8h62.4L50.4,85.9c-4.2,4.2-4.2,11.1,0,15.3c2.1,2.1,4.9,3.2,7.7,3.2
	c2.8,0,5.5-1.1,7.7-3.2l41.4-41.4C111.3,55.7,111.3,48.8,107.1,44.6"/>
</svg>
