<?xml version="1.0" encoding="utf-8"?>
<!-- Generator: Adobe Illustrator 19.0.0, SVG Export Plug-In . SVG Version: 6.00 Build 0)  -->
<svg version="1.1" id="Layer_1" xmlns="http://www.w3.org/2000/svg" xmlns:xlink="http://www.w3.org/1999/xlink" x="0px" y="0px"
	 viewBox="0 0 165.5 129.7" style="enable-background:new 0 0 165.5 129.7;" xml:space="preserve">
<style type="text/css">
	.st0{fill:#006848;}
</style>
<path class="st0" d="M64.4,108.1c-6,0-10.8,4.8-10.8,10.8c0,6,4.8,10.8,10.8,10.8c6,0,10.8-4.8,10.8-10.8
	C75.2,112.9,70.3,108.1,64.4,108.1"/>
<path class="st0" d="M130.6,108.1c-6,0-10.8,4.8-10.8,10.8c0,6,4.8,10.8,10.8,10.8c6,0,10.8-4.8,10.8-10.8
	C141.4,112.9,136.5,108.1,130.6,108.1"/>
<path class="st0" d="M54.3,82.3c3.6,8.2,10.2,13.2,17.4,13.2h51.7c7.2,0,13.8-5,17.4-13.2l24.8-56.7H44.7L33.4,0H6.9
	C3.1,0,0,3.1,0,6.9s3.1,6.9,6.9,6.9h17.5l5.1,11.7h-0.1L54.3,82.3z"/>
</svg>
